{
  "stats": {
    "suites": 5,
    "tests": 26,
    "passes": 26,
    "pending": 0,
    "failures": 0,
    "start": "2021-08-28T20:36:26.790Z",
    "end": "2021-08-28T20:37:43.580Z",
    "duration": 70518,
    "testsRegistered": 26,
    "passPercent": 100,
    "pendingPercent": 0,
    "other": 0,
    "hasOther": false,
    "skipped": 0,
    "hasSkipped": false
  },
  "results": [
    {
      "uuid": "0f66a411-a9cd-40d8-9033-54e8c19a2c91",
      "title": "",
      "fullFile": "cypress/integration/automationtest/shopping.spec.js",
      "file": "cypress/integration/automationtest/shopping.spec.js",
      "beforeHooks": [],
      "afterHooks": [],
      "tests": [],
      "suites": [
        {
          "uuid": "629ef782-e811-426f-8640-1d8d4806334c",
          "title": "example to-do app",
          "fullFile": "",
          "file": "",
          "beforeHooks": [],
          "afterHooks": [],
          "tests": [
            {
              "title": "login to the application",
              "fullTitle": "example to-do app login to the application",
              "timedOut": null,
              "duration": 11136,
              "state": "passed",
              "speed": "slow",
              "pass": true,
              "fail": false,
              "pending": false,
              "context": null,
              "code": "// We use the `cy.get()` command to get all elements that match the selector.\n// Then, we use `should` to assert that there are two matched items,\n// which are the two default items.\ncy.contains('Sign in').click(); //cy.get('login').should('be.visible').contains('Sign in').click()\ncy.get(loginPage.username).should('be.visible').type('shilpa.dgangadhar@gmail.com');\ncy.get(loginPage.password).should('be.visible').type('Sonu123%');\ncy.get(loginPage.logInButton).should('be.visible').contains('Sign in').click();",
              "err": {},
              "uuid": "263fcb76-9691-461d-821f-2166be0367f5",
              "parentUUID": "629ef782-e811-426f-8640-1d8d4806334c",
              "isHook": false,
              "skipped": false
            },
            {
              "title": "login to the application",
              "fullTitle": "example to-do app login to the application",
              "timedOut": null,
              "duration": 6845,
              "state": "passed",
              "speed": "slow",
              "pass": true,
              "fail": false,
              "pending": false,
              "context": null,
              "code": "// We use the `cy.get()` command to get all elements that match the selector.\n// Then, we use `should` to assert that there are two matched items,\n// which are the two default items.\ncy.contains('Sign in').click(); //cy.get('login').should('be.visible').contains('Sign in').click()\ncy.get(loginPage.username).should('be.visible').type('shilpa.dgangadhar@gmail.com');\ncy.get(loginPage.password).should('be.visible').type('Sonu123%');\ncy.get(loginPage.logInButton).should('be.visible').contains('Sign in').click();",
              "err": {},
              "uuid": "f7818485-ae41-4583-ba7a-baab926098c1",
              "parentUUID": "629ef782-e811-426f-8640-1d8d4806334c",
              "isHook": false,
              "skipped": false
            }
          ],
          "suites": [],
          "passes": [
            "263fcb76-9691-461d-821f-2166be0367f5",
            "f7818485-ae41-4583-ba7a-baab926098c1"
          ],
          "failures": [],
          "pending": [],
          "skipped": [],
          "duration": 17981,
          "root": false,
          "rootEmpty": false,
          "_timeout": 2000
        }
      ],
      "passes": [],
      "failures": [],
      "pending": [],
      "skipped": [],
      "duration": 0,
      "root": true,
      "rootEmpty": true,
      "_timeout": 2000
    },
    {
      "uuid": "45d6a53b-f716-4900-a952-ab45021988bd",
      "title": "",
      "fullFile": "cypress/integration/checkTotalPrice.spec.js",
      "file": "cypress/integration/checkTotalPrice.spec.js",
      "beforeHooks": [],
      "afterHooks": [],
      "tests": [],
      "suites": [
        {
          "uuid": "081c91db-abb5-4e63-a762-937ac858bc96",
          "title": "Add the product quantity as five to the cart and check the total price",
          "fullFile": "",
          "file": "",
          "beforeHooks": [],
          "afterHooks": [],
          "tests": [
            {
              "title": "Check the title, url and links on the Landing Page",
              "fullTitle": "Add the product quantity as five to the cart and check the total price Check the title, url and links on the Landing Page",
              "timedOut": null,
              "duration": 6665,
              "state": "passed",
              "speed": "slow",
              "pass": true,
              "fail": false,
              "pending": false,
              "context": null,
              "code": "_LandingPage.default.verifyTitle();\n_LandingPage.default.verifyUrl();\n_LandingPage.default.verifyForPageToLoad();\n_LandingPage.default.contactLink();\n_LandingPage.default.loginLink();",
              "err": {},
              "uuid": "bcc39d33-52cd-4754-92fc-98a2be8acc0c",
              "parentUUID": "081c91db-abb5-4e63-a762-937ac858bc96",
              "isHook": false,
              "skipped": false
            },
            {
              "title": "Click on the 5th Product with 5% discount on the Landing Page",
              "fullTitle": "Add the product quantity as five to the cart and check the total price Click on the 5th Product with 5% discount on the Landing Page",
              "timedOut": null,
              "duration": 3163,
              "state": "passed",
              "speed": "slow",
              "pass": true,
              "fail": false,
              "pending": false,
              "context": null,
              "code": "_ProductPage.default.printedSummerDress();\n_ProductPage.default.verifyTitle();",
              "err": {},
              "uuid": "ff63c612-d3b4-47d1-8540-09f4edf050ab",
              "parentUUID": "081c91db-abb5-4e63-a762-937ac858bc96",
              "isHook": false,
              "skipped": false
            },
            {
              "title": "Add quantity as 5 for the product",
              "fullTitle": "Add the product quantity as five to the cart and check the total price Add quantity as 5 for the product",
              "timedOut": null,
              "duration": 4186,
              "state": "passed",
              "speed": "slow",
              "pass": true,
              "fail": false,
              "pending": false,
              "context": null,
              "code": "_ProductPage.default.addQuantity();",
              "err": {},
              "uuid": "222a8cf2-84a0-4abd-b009-325779a2f280",
              "parentUUID": "081c91db-abb5-4e63-a762-937ac858bc96",
              "isHook": false,
              "skipped": false
            },
            {
              "title": "Check whether the Total price is accurate from the Cart",
              "fullTitle": "Add the product quantity as five to the cart and check the total price Check whether the Total price is accurate from the Cart",
              "timedOut": null,
              "duration": 30,
              "state": "passed",
              "speed": "fast",
              "pass": true,
              "fail": false,
              "pending": false,
              "context": null,
              "code": "_ProductPage.default.verifyTotalPrice();",
              "err": {},
              "uuid": "23067ac4-2f73-444b-9ae2-902e6063efb4",
              "parentUUID": "081c91db-abb5-4e63-a762-937ac858bc96",
              "isHook": false,
              "skipped": false
            }
          ],
          "suites": [],
          "passes": [
            "bcc39d33-52cd-4754-92fc-98a2be8acc0c",
            "ff63c612-d3b4-47d1-8540-09f4edf050ab",
            "222a8cf2-84a0-4abd-b009-325779a2f280",
            "23067ac4-2f73-444b-9ae2-902e6063efb4"
          ],
          "failures": [],
          "pending": [],
          "skipped": [],
          "duration": 14044,
          "root": false,
          "rootEmpty": false,
          "_timeout": 2000
        }
      ],
      "passes": [],
      "failures": [],
      "pending": [],
      "skipped": [],
      "duration": 0,
      "root": true,
      "rootEmpty": true,
      "_timeout": 2000
    },
    {
      "uuid": "05268170-e307-4227-bc69-5380a7634f9b",
      "title": "",
      "fullFile": "cypress/integration/productNames.spec.js",
      "file": "cypress/integration/productNames.spec.js",
      "beforeHooks": [],
      "afterHooks": [],
      "tests": [],
      "suites": [
        {
          "uuid": "1e70b715-27b5-4733-b316-c90edfdf0c93",
          "title": "Check Product Names Visible and Print it to Test Report",
          "fullFile": "",
          "file": "",
          "beforeHooks": [],
          "afterHooks": [],
          "tests": [
            {
              "title": "Check the title, url and links on the Landing Page",
              "fullTitle": "Check Product Names Visible and Print it to Test Report Check the title, url and links on the Landing Page",
              "timedOut": null,
              "duration": 9735,
              "state": "passed",
              "speed": "slow",
              "pass": true,
              "fail": false,
              "pending": false,
              "context": null,
              "code": "_LandingPage.default.verifyTitle();\n_LandingPage.default.verifyUrl();\n_LandingPage.default.verifyForPageToLoad();\n_LandingPage.default.contactLink();\n_LandingPage.default.loginLink();",
              "err": {},
              "uuid": "9c9784b4-d847-4ddb-b3b1-81283a9a33c7",
              "parentUUID": "1e70b715-27b5-4733-b316-c90edfdf0c93",
              "isHook": false,
              "skipped": false
            },
            {
              "title": "Check the product name: Faded Short Sleeve T-shirts is visible",
              "fullTitle": "Check Product Names Visible and Print it to Test Report Check the product name: Faded Short Sleeve T-shirts is visible",
              "timedOut": null,
              "duration": 155,
              "state": "passed",
              "speed": "slow",
              "pass": true,
              "fail": false,
              "pending": false,
              "context": null,
              "code": "_LandingPage.default.fadedShortSleeveTshirts();",
              "err": {},
              "uuid": "743519bd-016c-470c-b307-fdc0b29d007d",
              "parentUUID": "1e70b715-27b5-4733-b316-c90edfdf0c93",
              "isHook": false,
              "skipped": false
            },
            {
              "title": "Check the product name: Blouse is visible",
              "fullTitle": "Check Product Names Visible and Print it to Test Report Check the product name: Blouse is visible",
              "timedOut": null,
              "duration": 24,
              "state": "passed",
              "speed": "fast",
              "pass": true,
              "fail": false,
              "pending": false,
              "context": null,
              "code": "_LandingPage.default.blouse();",
              "err": {},
              "uuid": "50b55c26-93a8-4907-9a16-1e88853f7372",
              "parentUUID": "1e70b715-27b5-4733-b316-c90edfdf0c93",
              "isHook": false,
              "skipped": false
            },
            {
              "title": "Check the product name: Printed Dress is visible",
              "fullTitle": "Check Product Names Visible and Print it to Test Report Check the product name: Printed Dress is visible",
              "timedOut": null,
              "duration": 134,
              "state": "passed",
              "speed": "slow",
              "pass": true,
              "fail": false,
              "pending": false,
              "context": null,
              "code": "_LandingPage.default.printedDress();",
              "err": {},
              "uuid": "e1421746-5a32-4604-bd04-3425bc9caaf1",
              "parentUUID": "1e70b715-27b5-4733-b316-c90edfdf0c93",
              "isHook": false,
              "skipped": false
            },
            {
              "title": "Check the product name: Printed Dress Two is visible",
              "fullTitle": "Check Product Names Visible and Print it to Test Report Check the product name: Printed Dress Two is visible",
              "timedOut": null,
              "duration": 15,
              "state": "passed",
              "speed": "fast",
              "pass": true,
              "fail": false,
              "pending": false,
              "context": null,
              "code": "_LandingPage.default.printedDressTwo();",
              "err": {},
              "uuid": "9d4ea860-e56c-4f69-a6d8-e8390312be87",
              "parentUUID": "1e70b715-27b5-4733-b316-c90edfdf0c93",
              "isHook": false,
              "skipped": false
            },
            {
              "title": "Check the product name: Printed Summer Dress is visible",
              "fullTitle": "Check Product Names Visible and Print it to Test Report Check the product name: Printed Summer Dress is visible",
              "timedOut": null,
              "duration": 123,
              "state": "passed",
              "speed": "slow",
              "pass": true,
              "fail": false,
              "pending": false,
              "context": null,
              "code": "_LandingPage.default.printedSummerDress();",
              "err": {},
              "uuid": "8281d27d-63c4-489e-a7b4-d93b9783c77c",
              "parentUUID": "1e70b715-27b5-4733-b316-c90edfdf0c93",
              "isHook": false,
              "skipped": false
            },
            {
              "title": "Check the product name: Printed Summer Dress Two is visible",
              "fullTitle": "Check Product Names Visible and Print it to Test Report Check the product name: Printed Summer Dress Two is visible",
              "timedOut": null,
              "duration": 15,
              "state": "passed",
              "speed": "fast",
              "pass": true,
              "fail": false,
              "pending": false,
              "context": null,
              "code": "_LandingPage.default.printedSummerDressTwo();",
              "err": {},
              "uuid": "47f13ec5-2556-462d-9526-103d178dfe71",
              "parentUUID": "1e70b715-27b5-4733-b316-c90edfdf0c93",
              "isHook": false,
              "skipped": false
            },
            {
              "title": "Check the product name: Printed Chiffon Dress is visible",
              "fullTitle": "Check Product Names Visible and Print it to Test Report Check the product name: Printed Chiffon Dress is visible",
              "timedOut": null,
              "duration": 123,
              "state": "passed",
              "speed": "slow",
              "pass": true,
              "fail": false,
              "pending": false,
              "context": null,
              "code": "_LandingPage.default.printedChiffonDress();",
              "err": {},
              "uuid": "19e2077e-a993-46c4-9324-f9d504e2aca3",
              "parentUUID": "1e70b715-27b5-4733-b316-c90edfdf0c93",
              "isHook": false,
              "skipped": false
            }
          ],
          "suites": [],
          "passes": [
            "9c9784b4-d847-4ddb-b3b1-81283a9a33c7",
            "743519bd-016c-470c-b307-fdc0b29d007d",
            "50b55c26-93a8-4907-9a16-1e88853f7372",
            "e1421746-5a32-4604-bd04-3425bc9caaf1",
            "9d4ea860-e56c-4f69-a6d8-e8390312be87",
            "8281d27d-63c4-489e-a7b4-d93b9783c77c",
            "47f13ec5-2556-462d-9526-103d178dfe71",
            "19e2077e-a993-46c4-9324-f9d504e2aca3"
          ],
          "failures": [],
          "pending": [],
          "skipped": [],
          "duration": 10324,
          "root": false,
          "rootEmpty": false,
          "_timeout": 2000
        }
      ],
      "passes": [],
      "failures": [],
      "pending": [],
      "skipped": [],
      "duration": 0,
      "root": true,
      "rootEmpty": true,
      "_timeout": 2000
    },
    {
      "uuid": "e6199087-bb47-4c7e-b8f2-846b80c05865",
      "title": "",
      "fullFile": "cypress/integration/toggleProductColour.spec.js",
      "file": "cypress/integration/toggleProductColour.spec.js",
      "beforeHooks": [],
      "afterHooks": [],
      "tests": [],
      "suites": [
        {
          "uuid": "519d597e-fee6-4957-917e-d685d6cd6e12",
          "title": "Toggle between the colours of the Product",
          "fullFile": "",
          "file": "",
          "beforeHooks": [],
          "afterHooks": [],
          "tests": [
            {
              "title": "Check the title, url and links on the Landing Page",
              "fullTitle": "Toggle between the colours of the Product Check the title, url and links on the Landing Page",
              "timedOut": null,
              "duration": 6998,
              "state": "passed",
              "speed": "slow",
              "pass": true,
              "fail": false,
              "pending": false,
              "context": null,
              "code": "_LandingPage.default.verifyTitle();\n_LandingPage.default.verifyUrl();\n_LandingPage.default.verifyForPageToLoad();\n_LandingPage.default.contactLink();\n_LandingPage.default.loginLink();",
              "err": {},
              "uuid": "ee0026f1-5ce0-42de-ab94-9932510b5bb9",
              "parentUUID": "519d597e-fee6-4957-917e-d685d6cd6e12",
              "isHook": false,
              "skipped": false
            },
            {
              "title": "Click on the 5th Product with 5% discount on the Landing Page",
              "fullTitle": "Toggle between the colours of the Product Click on the 5th Product with 5% discount on the Landing Page",
              "timedOut": null,
              "duration": 3064,
              "state": "passed",
              "speed": "slow",
              "pass": true,
              "fail": false,
              "pending": false,
              "context": null,
              "code": "_ProductPage.default.printedSummerDress();\n_ProductPage.default.verifyTitle();",
              "err": {},
              "uuid": "c10c50aa-7dcf-4297-97ae-c8b9447d2228",
              "parentUUID": "519d597e-fee6-4957-917e-d685d6cd6e12",
              "isHook": false,
              "skipped": false
            },
            {
              "title": "Check when selecting black colour the image is updated",
              "fullTitle": "Toggle between the colours of the Product Check when selecting black colour the image is updated",
              "timedOut": null,
              "duration": 572,
              "state": "passed",
              "speed": "slow",
              "pass": true,
              "fail": false,
              "pending": false,
              "context": null,
              "code": "_ProductPage.default.blackColour();\n_ProductPage.default.colourSelected();\n_ProductPage.default.blackColourImageUpdated();",
              "err": {},
              "uuid": "6426accd-8c16-47fd-ac9b-4ded4f7f1911",
              "parentUUID": "519d597e-fee6-4957-917e-d685d6cd6e12",
              "isHook": false,
              "skipped": false
            },
            {
              "title": "Check when selecting orange colour the image is updated",
              "fullTitle": "Toggle between the colours of the Product Check when selecting orange colour the image is updated",
              "timedOut": null,
              "duration": 495,
              "state": "passed",
              "speed": "slow",
              "pass": true,
              "fail": false,
              "pending": false,
              "context": null,
              "code": "_ProductPage.default.orangeColour();\n_ProductPage.default.colourSelected();\n_ProductPage.default.orangeColourImageUpdated();",
              "err": {},
              "uuid": "7604cd5b-53f7-4a9e-8f5d-18be40742f51",
              "parentUUID": "519d597e-fee6-4957-917e-d685d6cd6e12",
              "isHook": false,
              "skipped": false
            },
            {
              "title": "Check when selecting blue colour the image is updated",
              "fullTitle": "Toggle between the colours of the Product Check when selecting blue colour the image is updated",
              "timedOut": null,
              "duration": 495,
              "state": "passed",
              "speed": "slow",
              "pass": true,
              "fail": false,
              "pending": false,
              "context": null,
              "code": "_ProductPage.default.blueColour();\n_ProductPage.default.colourSelected();\n_ProductPage.default.blueColourImageUpdated();",
              "err": {},
              "uuid": "8825eaea-d888-47a5-9307-361ed690745f",
              "parentUUID": "519d597e-fee6-4957-917e-d685d6cd6e12",
              "isHook": false,
              "skipped": false
            },
            {
              "title": "Check when selecting yellow colour the image is updated",
              "fullTitle": "Toggle between the colours of the Product Check when selecting yellow colour the image is updated",
              "timedOut": null,
              "duration": 482,
              "state": "passed",
              "speed": "slow",
              "pass": true,
              "fail": false,
              "pending": false,
              "context": null,
              "code": "_ProductPage.default.yellowColour();\n_ProductPage.default.colourSelected();\n_ProductPage.default.yellowColourImageUpdated();",
              "err": {},
              "uuid": "0eec3dc6-34a3-47ad-a4eb-5ec6f9613778",
              "parentUUID": "519d597e-fee6-4957-917e-d685d6cd6e12",
              "isHook": false,
              "skipped": false
            },
            {
              "title": "Navigate to Landing Page",
              "fullTitle": "Toggle between the colours of the Product Navigate to Landing Page",
              "timedOut": null,
              "duration": 2660,
              "state": "passed",
              "speed": "slow",
              "pass": true,
              "fail": false,
              "pending": false,
              "context": null,
              "code": "_ProductPage.default.navigateToHomePage();",
              "err": {},
              "uuid": "9ae3351f-851b-406a-87e8-14c2d44c5706",
              "parentUUID": "519d597e-fee6-4957-917e-d685d6cd6e12",
              "isHook": false,
              "skipped": false
            }
          ],
          "suites": [],
          "passes": [
            "ee0026f1-5ce0-42de-ab94-9932510b5bb9",
            "c10c50aa-7dcf-4297-97ae-c8b9447d2228",
            "6426accd-8c16-47fd-ac9b-4ded4f7f1911",
            "7604cd5b-53f7-4a9e-8f5d-18be40742f51",
            "8825eaea-d888-47a5-9307-361ed690745f",
            "0eec3dc6-34a3-47ad-a4eb-5ec6f9613778",
            "9ae3351f-851b-406a-87e8-14c2d44c5706"
          ],
          "failures": [],
          "pending": [],
          "skipped": [],
          "duration": 14766,
          "root": false,
          "rootEmpty": false,
          "_timeout": 2000
        }
      ],
      "passes": [],
      "failures": [],
      "pending": [],
      "skipped": [],
      "duration": 0,
      "root": true,
      "rootEmpty": true,
      "_timeout": 2000
    },
    {
      "uuid": "4af4ce88-953a-4fca-8c40-c64c0f7d4df4",
      "title": "",
      "fullFile": "cypress/integration/addToCart.spec.js",
      "file": "cypress/integration/addToCart.spec.js",
      "beforeHooks": [],
      "afterHooks": [],
      "tests": [],
      "suites": [
        {
          "uuid": "557ea2f6-b8fd-4fe6-aa95-fd384d9f269e",
          "title": "Add to Cart",
          "fullFile": "",
          "file": "",
          "beforeHooks": [],
          "afterHooks": [],
          "tests": [
            {
              "title": "Check the title, url and links on the Landing Page",
              "fullTitle": "Add to Cart Check the title, url and links on the Landing Page",
              "timedOut": null,
              "duration": 7461,
              "state": "passed",
              "speed": "slow",
              "pass": true,
              "fail": false,
              "pending": false,
              "context": null,
              "code": "_LandingPage.default.verifyTitle();\n_LandingPage.default.verifyUrl();\n_LandingPage.default.verifyForPageToLoad();\n_LandingPage.default.contactLink();\n_LandingPage.default.loginLink();",
              "err": {},
              "uuid": "12207944-fd6f-4be3-b984-a870ecf9d516",
              "parentUUID": "557ea2f6-b8fd-4fe6-aa95-fd384d9f269e",
              "isHook": false,
              "skipped": false
            },
            {
              "title": "click on 20% discount listed Item",
              "fullTitle": "Add to Cart click on 20% discount listed Item",
              "timedOut": null,
              "duration": 3900,
              "state": "passed",
              "speed": "slow",
              "pass": true,
              "fail": false,
              "pending": false,
              "context": null,
              "code": "_LandingPage.default.printedChiffonDress();\n_AddToCartPage.default.clickChiffonDress();",
              "err": {},
              "uuid": "95a949d5-6e3d-401f-a8be-0a12290d11ac",
              "parentUUID": "557ea2f6-b8fd-4fe6-aa95-fd384d9f269e",
              "isHook": false,
              "skipped": false
            },
            {
              "title": "Check whether the Add to Cart Button is enabled and click product to add to Cart",
              "fullTitle": "Add to Cart Check whether the Add to Cart Button is enabled and click product to add to Cart",
              "timedOut": null,
              "duration": 762,
              "state": "passed",
              "speed": "slow",
              "pass": true,
              "fail": false,
              "pending": false,
              "context": null,
              "code": "_AddToCartPage.default.clickAddToCart();",
              "err": {},
              "uuid": "75abd8a7-4e3b-419b-8f0f-4e28199d7137",
              "parentUUID": "557ea2f6-b8fd-4fe6-aa95-fd384d9f269e",
              "isHook": false,
              "skipped": false
            },
            {
              "title": "Verify whether the product added to Cart message is displayed",
              "fullTitle": "Add to Cart Verify whether the product added to Cart message is displayed",
              "timedOut": null,
              "duration": 1149,
              "state": "passed",
              "speed": "slow",
              "pass": true,
              "fail": false,
              "pending": false,
              "context": null,
              "code": "_AddToCartPage.default.cartSuccessMessage();\n_AddToCartPage.default.cartAddedMessage();",
              "err": {},
              "uuid": "a180c9ab-fec2-47f5-8b7c-9eb86b0ad135",
              "parentUUID": "557ea2f6-b8fd-4fe6-aa95-fd384d9f269e",
              "isHook": false,
              "skipped": false
            },
            {
              "title": "Verify the product count from the Cart",
              "fullTitle": "Add to Cart Verify the product count from the Cart",
              "timedOut": null,
              "duration": 131,
              "state": "passed",
              "speed": "slow",
              "pass": true,
              "fail": false,
              "pending": false,
              "context": null,
              "code": "_AddToCartPage.default.cartCount();",
              "err": {},
              "uuid": "7d5dbb9b-3bb3-4767-88af-e52d5b3b6413",
              "parentUUID": "557ea2f6-b8fd-4fe6-aa95-fd384d9f269e",
              "isHook": false,
              "skipped": false
            }
          ],
          "suites": [],
          "passes": [
            "12207944-fd6f-4be3-b984-a870ecf9d516",
            "95a949d5-6e3d-401f-a8be-0a12290d11ac",
            "75abd8a7-4e3b-419b-8f0f-4e28199d7137",
            "a180c9ab-fec2-47f5-8b7c-9eb86b0ad135",
            "7d5dbb9b-3bb3-4767-88af-e52d5b3b6413"
          ],
          "failures": [],
          "pending": [],
          "skipped": [],
          "duration": 13403,
          "root": false,
          "rootEmpty": false,
          "_timeout": 2000
        }
      ],
      "passes": [],
      "failures": [],
      "pending": [],
      "skipped": [],
      "duration": 0,
      "root": true,
      "rootEmpty": true,
      "_timeout": 2000
    }
  ],
  "meta": {
    "mocha": {
      "version": "7.0.1"
    },
    "mochawesome": {
      "options": {
        "quiet": false,
        "reportFilename": "mochawesome",
        "saveHtml": false,
        "saveJson": true,
        "consoleReporter": "spec",
        "useInlineDiffs": false,
        "code": true
      },
      "version": "6.1.1"
    },
    "marge": {
      "options": {
        "id": "default",
        "reportDir": "cypress/reports/mocha",
        "quite": true,
        "overwrite": false,
        "html": false,
        "json": true
      },
      "version": "5.1.0"
    }
  }
}